<svg width="89" height="89" viewBox="0 0 89 89" fill="none" xmlns="http://www.w3.org/2000/svg">
<path d="M18.6611 27.0852L8.17756 20.0971H4.30641C1.93172 20.0971 0 18.1654 0 15.7907V4.3069C0 1.93291 1.93172 0.000488281 4.30641 0.000488281H27.2739C29.6479 0.000488281 31.5804 1.93291 31.5804 4.3069V15.7907C31.5804 18.1654 29.6479 20.0971 27.2739 20.0971H18.6611V27.0852Z" fill="#FF7D34"/>
<path d="M70.3372 27.0857V20.0976H61.7244C59.3497 20.0976 57.418 18.1658 57.418 15.7912V4.30739C57.418 1.9334 59.3497 0.000976562 61.7244 0.000976562H84.6919C87.0659 0.000976562 88.9983 1.9334 88.9983 4.30739V15.7912C88.9983 18.1658 87.0659 20.0976 84.6919 20.0976H80.8201L70.3372 27.0857Z" fill="#FF7D34"/>
<path d="M88.9992 54.5489V53.1134C88.9992 49.9411 86.8684 47.1164 83.8166 46.2438L78.9509 44.8538V44.4704C80.7389 43.1226 81.8218 41.0023 81.8218 38.7587V36.1849C81.8218 32.3278 78.9495 29.0567 75.2816 28.7377C73.2721 28.5639 71.2724 29.2417 69.7956 30.5952C68.3152 31.9535 67.4671 33.8824 67.4671 35.8878V38.7587C67.4671 41.0023 68.5493 43.1226 70.3381 44.4704V44.8538L65.4716 46.2438C64.6158 46.4891 63.8455 46.8998 63.1607 47.415V34.4523H48.806V37.3232H60.2898V86.1292H28.7094V37.3232H40.1932V34.4523H25.8385V47.415C25.1551 46.8998 24.3827 46.4877 23.5269 46.2438L18.6611 44.8538V44.4704C20.4492 43.1226 21.5321 41.0023 21.5321 38.7587V36.1849C21.5321 32.3278 18.6597 29.0567 14.9918 28.7377C12.9809 28.5639 10.9826 29.2417 9.50579 30.5952C8.02546 31.9535 7.17735 33.8824 7.17735 35.8878V38.7587C7.17735 41.0023 8.25956 43.1226 10.0483 44.4704V44.8538L5.18185 46.2438C2.13008 47.1164 0 49.9411 0 53.1134V54.5489H25.8385V76.1244C25.1551 75.6092 24.3827 75.1971 23.5269 74.9532L18.6611 73.5633V73.1799C20.4492 71.832 21.5321 69.7117 21.5321 67.4681V64.8944C21.5321 61.0372 18.6597 57.7661 14.9918 57.4472C12.9809 57.2719 10.9826 57.9497 9.50579 59.3046C8.02546 60.6629 7.17735 62.5919 7.17735 64.5972V67.4681C7.17735 69.7117 8.25956 71.832 10.0483 73.1799V73.5633L5.18185 74.9532C2.13008 75.8258 0 78.6505 0 81.8228V83.2583H25.8385V89.0002H63.1607V83.2583H88.9992V81.8228C88.9992 78.6505 86.8684 75.8258 83.8166 74.9532L78.9509 73.5633V73.1799C80.7389 71.832 81.8218 69.7117 81.8218 67.4681V64.8944C81.8218 61.0372 78.9495 57.7661 75.2816 57.4472C73.2721 57.2719 71.2724 57.9497 69.7956 59.3046C68.3152 60.6629 67.4671 62.5919 67.4671 64.5972V67.4681C67.4671 69.7117 68.5493 71.832 70.3381 73.1799V73.5633L65.4716 74.9532C64.6158 75.1985 63.8455 75.6092 63.1607 76.1244V54.5489H88.9992ZM66.2608 49.0054L73.209 47.019V42.8787L72.4955 42.4637C71.1448 41.6773 70.3381 40.2923 70.3381 38.7587V35.8878C70.3381 34.6836 70.8476 33.5264 71.7357 32.7126C72.6343 31.8876 73.7985 31.4923 75.0349 31.5989C77.2294 31.7895 78.9509 33.8039 78.9509 36.1849V38.7587C78.9509 40.2923 78.1441 41.6773 76.7935 42.4637L76.0799 42.8787V47.019L83.0274 49.0054C84.3739 49.3902 85.4203 50.4093 85.8766 51.6779H63.4116C63.8679 50.4079 64.9144 49.3888 66.2608 49.0054ZM3.12187 51.6779C3.57816 50.4079 4.62463 49.3888 5.97108 49.0054L12.9192 47.019V42.8787L12.2057 42.4637C10.855 41.6773 10.0483 40.2923 10.0483 38.7587V35.8878C10.0483 34.6836 10.5579 33.5264 11.4459 32.7126C12.3445 31.8876 13.5101 31.4923 14.7451 31.5989C16.9397 31.7895 18.6611 33.8039 18.6611 36.1849V38.7587C18.6611 40.2923 17.8544 41.6773 16.5037 42.4637L15.7902 42.8787V47.019L22.7376 49.0054C24.0841 49.3902 25.1306 50.4093 25.5868 51.6779H3.12187ZM3.12187 80.3873C3.57816 79.1173 4.62463 78.0982 5.97108 77.7148L12.9192 75.7284V71.5881L12.2057 71.1731C10.855 70.3867 10.0483 69.0017 10.0483 67.4681V64.5972C10.0483 63.393 10.5579 62.2358 11.4459 61.422C12.3445 60.5971 13.5101 60.2017 14.7451 60.3083C16.9397 60.4989 18.6611 62.5134 18.6611 64.8944V67.4681C18.6611 69.0017 17.8544 70.3867 16.5037 71.1731L15.7902 71.5881V75.7284L22.7376 77.7148C24.0841 78.0996 25.1306 79.1187 25.5868 80.3873H3.12187ZM66.2608 77.7148L73.209 75.7284V71.5881L72.4955 71.1731C71.1448 70.3867 70.3381 69.0017 70.3381 67.4681V64.5972C70.3381 63.393 70.8476 62.2358 71.7357 61.422C72.6343 60.5971 73.7985 60.2017 75.0349 60.3083C77.2294 60.4989 78.9509 62.5134 78.9509 64.8944V67.4681C78.9509 69.0017 78.1441 70.3867 76.7935 71.1731L76.0799 71.5881V75.7284L83.0274 77.7148C84.3739 78.0996 85.4203 79.1187 85.8766 80.3873H63.4116C63.8679 79.1173 64.9144 78.0982 66.2608 77.7148Z" fill="#999999"/>
<path d="M5.74219 5.74268H25.8388V8.61362H5.74219V5.74268Z" fill="white"/>
<path d="M22.9688 11.4844H25.8397V14.3553H22.9688V11.4844Z" fill="white"/>
<path d="M5.74219 11.4844H20.097V14.3553H5.74219V11.4844Z" fill="white"/>
<path d="M63.1602 5.74268H83.2567V8.61362H63.1602V5.74268Z" fill="white"/>
<path d="M63.1602 11.4844H77.515V14.3553H63.1602V11.4844Z" fill="white"/>
<path d="M80.3867 11.4844H83.2577V14.3553H80.3867V11.4844Z" fill="white"/>
<path d="M43.0638 31.378V40.194H40.1928C37.8181 40.194 35.8864 42.1265 35.8864 44.5005V48.8069H53.1121V44.5005C53.1121 42.1265 51.1796 40.194 48.8056 40.194H45.9347V31.378C47.4319 30.989 48.6802 30.0154 49.4428 28.7103H58.8539V24.4039C58.8539 21.2315 56.7232 18.4069 53.6714 17.5342L48.8056 16.1443V15.7609C50.5937 14.4131 51.6766 12.2928 51.6766 10.0492V7.47541C51.6766 3.61829 48.8042 0.347123 45.1364 0.028207C43.1297 -0.151227 41.1271 0.532164 39.6503 1.88563C38.17 3.244 37.3219 5.17291 37.3219 7.17823V10.0492C37.3219 12.2928 38.4041 14.4131 40.1928 15.7609V16.1443L35.3264 17.5342C32.2746 18.4069 30.1445 21.2315 30.1445 24.4039V28.7103H39.555C40.3176 30.0154 41.5666 30.989 43.0638 31.378ZM50.2411 44.5005V45.9359H38.7574V44.5005C38.7574 43.7084 39.4015 43.065 40.1928 43.065H48.8056C49.5963 43.065 50.2411 43.7084 50.2411 44.5005ZM44.4992 28.7103C42.9159 28.7103 41.6283 27.4227 41.6283 25.8393C41.6283 24.256 42.9159 22.9684 44.4992 22.9684C46.0826 22.9684 47.3702 24.256 47.3702 25.8393C47.3702 27.4227 46.0826 28.7103 44.4992 28.7103ZM33.0155 25.8393V24.4039C33.0155 22.5065 34.2897 20.8166 36.1156 20.2958L43.0638 18.3094V14.1691L42.3502 13.7542C40.9996 12.9678 40.1928 11.5828 40.1928 10.0492V7.17823C40.1928 5.97406 40.7024 4.81685 41.5904 4.00309C42.489 3.17811 43.6532 2.77719 44.8896 2.88934C47.0842 3.07998 48.8056 5.09441 48.8056 7.47541V10.0492C48.8056 11.5828 47.9989 12.9678 46.6482 13.7542L45.9347 14.1691V18.3094L52.8822 20.2958C54.708 20.8166 55.983 22.5065 55.983 24.4039V25.8393H50.2411C50.2411 22.6726 47.666 20.0975 44.4992 20.0975C41.3325 20.0975 38.7574 22.6726 38.7574 25.8393H33.0155Z" fill="#999999"/>
<path d="M57.4214 60.2906H45.9375V51.6777H57.4214V60.2906Z" fill="#FF7D34"/>
<path d="M43.0659 60.2911H31.582V51.6782H43.0659V60.2911Z" fill="#FF7D34"/>
<path d="M57.4214 83.2579H45.9375V74.645H57.4214V83.2579Z" fill="#FF7D34"/>
<path d="M43.0659 83.2579H31.582V74.645H43.0659V83.2579Z" fill="#FF7D34"/>
</svg>
