<svg width="89" height="84" viewBox="0 0 89 84" fill="none" xmlns="http://www.w3.org/2000/svg">
<path fill-rule="evenodd" clip-rule="evenodd" d="M84.8402 15.9042C84.0659 14.697 82.7197 13.9062 81.1777 13.9062H24.3359V64.3164H54.0082C54.9281 64.3164 55.8106 64.681 56.4622 65.3303L69.8789 78.6998V67.793C69.8789 65.8729 71.4354 64.3164 73.3555 64.3164H81.1776C81.1777 64.3164 81.1776 64.3164 81.1776 64.3164C81.5224 64.3164 81.853 64.2773 82.1669 64.2051C84.093 63.7618 85.5234 62.0385 85.5234 59.9707V18.252C85.5234 17.3773 85.2715 16.5766 84.8402 15.9042ZM81.1777 67.793H73.3555V80.8301C73.3555 82.2968 72.2554 83.2949 71.0357 83.4297C70.7585 83.4604 70.4751 83.4465 70.197 83.3833C69.7411 83.2797 69.2994 83.0438 68.9229 82.6551L54.0082 67.793H23.4668C22.0065 67.793 20.8594 66.6455 20.8594 65.1855V13.0371C20.8594 11.5768 22.0065 10.4297 23.4668 10.4297H81.1777C83.9485 10.4297 86.3773 11.8614 87.7665 14.0272C88.5475 15.2448 89 16.6943 89 18.252V59.9707C89 63.6903 86.4197 66.7938 82.9467 67.5931C82.3785 67.7239 81.7864 67.793 81.1777 67.793Z" fill="#999999"/>
<path d="M65.5332 0H7.82227C3.49377 0 0 3.49377 0 7.82227V49.541C0 53.8692 3.49377 57.3633 7.82227 57.3633H15.6445V70.4004C15.6445 72.7471 18.4604 73.8942 20.077 72.2254L35.3393 57.3633H65.5332C69.8617 57.3633 73.3555 53.8692 73.3555 49.541V7.82227C73.3555 3.49395 69.8617 0 65.5332 0Z" fill="white"/>
<path fill-rule="evenodd" clip-rule="evenodd" d="M19.1211 53.8867V68.3037L33.9262 53.8867H65.5332C67.9415 53.8867 69.8789 51.9492 69.8789 49.541V7.82227C69.8789 5.41395 67.9416 3.47656 65.5332 3.47656H7.82227C5.41382 3.47656 3.47656 5.41382 3.47656 7.82227V49.541C3.47656 51.9492 5.41392 53.8867 7.82227 53.8867H19.1211ZM7.82227 0H65.5332C69.8617 0 73.3555 3.49395 73.3555 7.82227V49.541C73.3555 53.8692 69.8617 57.3633 65.5332 57.3633H35.3393L20.077 72.2254C18.4604 73.8942 15.6445 72.7471 15.6445 70.4004V57.3633H7.82227C3.49377 57.3633 0 53.8692 0 49.541V7.82227C0 3.49377 3.49377 0 7.82227 0Z" fill="#999999"/>
<path fill-rule="evenodd" clip-rule="evenodd" d="M36.8516 20.8594H13.0382C9.59663 20.8594 9.59663 15.6445 13.0382 15.6445H36.8516H49.8887H49.8898C53.3314 15.6445 53.3314 20.8594 49.8898 20.8594H49.8887H36.8516ZM36.8516 41.7188H13.0382C9.59663 41.7188 9.59663 36.5039 13.0382 36.5039H36.8516H39.459H39.4601C42.9017 36.5039 42.9017 41.7188 39.4601 41.7188H39.459H36.8516ZM36.8516 31.2891H13.0371C11.5768 31.2891 10.4297 30.1416 10.4297 28.6816C10.4297 27.2213 11.5768 26.0742 13.0371 26.0742H36.8516H60.3184C63.76 26.0742 63.76 31.2891 60.3184 31.2891H36.8516Z" fill="#FF7D34"/>
</svg>
