<svg width="1440" height="806" viewBox="0 0 1440 806" fill="none" xmlns="http://www.w3.org/2000/svg" xmlns:xlink="http://www.w3.org/1999/xlink">
<mask id="mask0" style="mask-type:alpha" maskUnits="userSpaceOnUse" x="0" y="0" width="1440" height="806">
<rect width="1440" height="806" fill="#F8F6F9"/>
</mask>
<g mask="url(#mask0)">
<g clip-path="url(#clip0)">
<rect x="672" y="-148" width="804.726" height="632.232" fill="url(#pattern0)"/>
<path d="M775.953 -12.8925C682.487 75.6372 732.767 241.9 856.154 269.662C911.678 282.309 965.042 265.035 1016.86 246.527C1057.89 231.721 1086.27 257.632 1115.88 284.777C1160.92 326.112 1177.27 388.73 1233.72 419.268C1277.52 442.712 1332.73 444.254 1377.15 412.79C1427.43 377.008 1431.75 312.539 1397.82 269.354C1369.75 233.88 1328.42 221.233 1289.24 201.491C1255.62 184.526 1228.16 158.615 1233.72 116.972C1235.88 100.623 1244.51 85.5081 1251.92 70.3933C1275.36 22.8895 1276.9 -29.5497 1234.64 -62.2471C1199.78 -89.0836 1147.65 -90.626 1110.33 -60.3963C1084.73 -39.7291 1051.41 -20.6042 1017.17 -22.1465C985.092 -23.3804 959.181 -40.9629 928.335 -48.0577C895.946 -55.4608 861.398 -55.1524 829.626 -44.6645C808.341 -37.5698 790.759 -26.465 775.953 -12.8925Z" fill="url(#paint0_linear)"/>
</g>
<g clip-path="url(#clip1)">
<path d="M937.902 -110.676C953.017 -105.432 969.057 -98.3376 985.097 -89.3921C1007.92 -76.745 1030.13 -62.2471 1053.88 -46.8238C1091.83 -21.8381 1131.31 4.07306 1176.35 23.5064C1184.37 26.8995 1192.39 29.9842 1200.41 32.7604C1315.46 72.244 1404.3 26.5911 1475.87 -10.1164C1512.88 -29.2413 1548.05 -47.1323 1585.68 -54.8439C1606.35 -59.1625 1628.87 -57.6201 1649.53 -50.5254C1657.24 -47.7492 1664.96 -44.3561 1671.74 -40.346C1723.87 -9.19098 1743 57.4377 1715.24 111.111C1706.6 128.076 1691.18 145.35 1675.14 163.55C1646.76 195.322 1614.98 231.412 1599.56 283.543C1573.65 371.764 1609.12 470.165 1699.5 560.854C1704.13 565.481 1708.76 570.108 1713.39 574.735M1703.82 580.287C1699.2 576.277 1694.57 572.267 1689.94 568.257C1673.28 553.759 1657.86 538.336 1644.29 522.296C1633.8 509.649 1624.24 497.002 1615.91 483.738C1602.95 463.07 1592.77 442.095 1586.61 421.119C1581.98 406.004 1579.2 390.889 1578.28 375.774C1577.66 367.137 1577.66 358.809 1578.28 350.48C1579.2 333.206 1582.29 315.932 1587.22 298.966C1587.84 296.807 1588.46 294.956 1589.07 293.106C1604.5 244.06 1632.26 208.278 1656.32 177.431C1670.51 159.231 1684.39 142.574 1692.1 126.226C1699.81 108.951 1702.9 90.752 1701.66 72.861C1699.2 36.462 1678.53 1.91379 1643.98 -17.5196C1637.19 -21.5296 1629.79 -24.6143 1622.08 -27.082C1613.13 -29.8582 1603.88 -31.709 1594.63 -32.6344C1582.9 -33.5598 1570.87 -32.9429 1559.46 -30.4751C1555.14 -29.5497 1550.82 -28.6243 1546.51 -27.3905C1514.12 -18.7534 1483.58 -3.33012 1451.5 12.7101C1418.49 29.0588 1381.78 46.9498 1340.76 57.1292C1331.2 59.5969 1321.32 61.4477 1311.45 62.6816C1271.97 68.234 1229.09 65.4578 1182.21 48.1837C1174.5 45.4075 1166.78 42.0144 1159.07 38.6212C1138.71 29.0588 1119.59 18.2625 1101.39 6.84926C1081.03 -6.10631 1061.6 -19.6788 1042.78 -33.2513C1020.57 -48.9831 1000.21 -63.7894 979.236 -76.745C964.43 -85.999 949.623 -93.4022 936.051 -98.6461M1694.26 585.531C1689.63 582.138 1685.01 578.745 1680.38 575.352C1663.72 562.705 1647.68 549.132 1633.49 534.326C1622.39 522.604 1612.52 510.574 1603.57 497.927C1589.69 478.185 1578.89 457.518 1572.42 436.234C1567.79 421.119 1565.32 406.004 1564.7 390.581C1564.4 382.252 1564.7 373.615 1565.32 365.287C1566.56 348.013 1569.95 330.739 1574.88 313.773C1575.5 311.614 1576.12 309.763 1576.73 307.604C1591.85 258.557 1616.22 221.233 1637.5 190.386C1649.84 172.495 1662.18 156.455 1668.66 140.415C1675.14 123.758 1677.29 106.484 1675.14 89.5181C1671.13 54.9699 1650.15 22.581 1615.91 4.68998C1609.12 0.988391 1601.72 -1.7878 1594.32 -3.94706C1585.68 -6.41479 1576.43 -7.95712 1567.48 -8.57405C1555.76 -9.49945 1544.35 -8.57405 1533.24 -6.10633C1528.92 -5.18093 1524.6 -4.25553 1520.29 -3.02167C1488.51 5.61538 1458.28 20.4217 1426.82 35.5366C1394.12 51.2683 1358.03 67.617 1317.62 76.5625C1308.37 78.7218 1298.81 80.2641 1288.94 81.1895C1250.38 85.5081 1208.43 81.498 1163.7 63.607C1156.3 60.5223 1148.89 57.1292 1141.49 53.4276C1122.06 43.5567 1103.55 32.4519 1086.27 20.7302C1066.84 7.46618 1048.64 -6.41478 1031.06 -19.9873C1010.39 -36.0275 991.575 -51.1423 972.45 -64.4064C958.877 -73.6604 945.613 -81.372 933.275 -87.2329M1684.7 590.775C1680.07 587.999 1675.44 585.223 1670.82 582.447C1653.85 571.959 1637.5 560.237 1622.7 546.356C1611.28 535.56 1600.8 524.147 1591.23 511.808C1576.43 492.683 1565.01 472.324 1558.23 451.349C1553.29 436.234 1551.13 421.119 1550.82 405.696C1550.82 397.367 1551.13 388.73 1552.06 380.401C1553.91 363.436 1557.3 345.853 1562.24 328.579C1562.85 326.42 1563.47 324.569 1564.09 322.41C1578.89 273.364 1600.18 234.806 1618.38 203.651C1628.87 185.759 1639.66 170.336 1644.91 154.913C1650.15 138.873 1651.07 122.524 1648.3 106.175C1642.75 73.7864 1621.46 43.2482 1587.53 26.8995C1580.74 23.5064 1573.65 21.0387 1566.25 18.8794C1557.61 16.7202 1548.66 15.1778 1539.72 14.8694C1528.31 14.2524 1516.89 15.1778 1506.1 17.6456C1501.78 18.571 1497.77 19.4964 1493.45 20.7302C1461.99 29.3673 1432.37 43.5567 1401.53 57.7461C1369.14 72.5525 1333.66 87.9758 1294.18 95.379C1284.93 97.2298 1275.67 98.4636 1266.11 99.0806C1228.17 102.165 1187.76 96.9213 1144.57 78.4134C1137.48 75.3287 1130.38 71.6271 1123.29 67.9255C1104.47 57.7461 1087.2 46.3329 1070.85 34.3027C1052.34 20.7302 1035.38 6.54079 1019.34 -7.34018C999.903 -23.0719 982.629 -38.4952 965.047 -52.0677C952.708 -61.6302 940.678 -69.3418 929.882 -75.5112M1675.14 596.019C1670.82 593.86 1665.88 592.009 1661.25 589.541C1644.29 581.213 1627.32 571.033 1611.9 558.078C1599.87 548.207 1589.07 537.411 1578.89 525.689C1563.16 507.489 1550.82 487.439 1544.04 466.464C1539.1 451.657 1536.94 436.234 1537.25 420.502C1537.56 412.174 1538.18 403.536 1539.1 395.208C1541.26 378.242 1544.96 360.968 1549.9 343.386C1550.52 341.226 1551.13 339.376 1551.75 337.216C1566.25 288.17 1584.14 248.378 1599.56 216.915C1608.2 199.332 1617.76 184.217 1621.46 169.411C1625.16 153.988 1625.47 138.256 1621.77 123.141C1614.68 92.6028 1593.08 64.2239 1559.46 49.4175C1552.98 46.3329 1545.89 44.1736 1538.48 42.3228C1530.16 40.1636 1521.21 39.2382 1512.57 38.9297C1501.47 38.6212 1490.36 39.5466 1479.57 42.0144C1475.56 42.9398 1471.24 43.8652 1467.23 45.099C1436.07 53.4276 1407.08 67.3086 1376.54 80.5726C1344.15 94.762 1309.29 108.951 1270.74 114.812C1261.79 116.355 1252.54 117.28 1243.28 117.589C1205.65 119.748 1166.47 113.27 1125.45 94.1451C1118.66 91.0605 1111.88 87.3589 1105.09 83.3488C1087.2 72.861 1070.85 61.4477 1055.43 49.1091C1038.15 35.2281 1022.42 20.7302 1007.31 6.84926C989.724 -10.1164 973.992 -25.8481 958.569 -39.4206C947.464 -48.9831 936.976 -57.0032 927.414 -63.481M1665.26 600.955C1660.95 599.412 1656.32 598.178 1651.38 596.328C1634.42 590.158 1616.84 581.521 1600.49 569.8C1588.15 560.854 1576.43 550.675 1565.94 539.57C1549.28 521.987 1536.33 502.246 1529.23 481.578C1523.99 466.772 1522.14 451.349 1523.06 435.617C1523.37 427.288 1524.3 418.96 1525.53 410.323C1528 393.357 1532.01 376.083 1536.94 358.5C1537.56 356.341 1538.18 354.49 1538.79 352.331C1552.98 303.285 1567.48 262.568 1580.13 230.487C1586.91 213.213 1594.93 198.715 1597.4 184.217C1599.87 169.719 1598.94 154.604 1594.63 140.415C1585.99 111.728 1564.09 85.5081 1530.77 71.9356C1524.3 69.1594 1517.2 67.0001 1510.11 65.4578C1501.78 63.607 1493.45 62.6816 1484.81 62.6816C1474.02 62.3731 1462.91 63.607 1452.73 65.7662C1448.72 66.6916 1444.71 67.617 1440.7 68.8509C1410.16 77.1795 1381.48 90.4435 1351.55 102.782C1319.47 116.046 1285.23 129.002 1247.6 133.937C1238.96 135.171 1229.71 135.788 1220.77 135.788C1184.06 136.096 1146.12 128.693 1106.94 108.643C1100.46 105.25 1093.99 101.548 1087.51 97.5382C1070.54 86.7419 1054.81 75.0202 1040.31 62.3731C1023.96 48.1837 1009.47 33.6858 995.585 19.1879C979.545 2.53073 965.664 -13.5095 952.091 -27.3905C942.529 -37.2614 933.275 -45.2815 924.946 -52.0677M1655.7 606.199C1651.38 605.273 1646.76 604.656 1641.82 603.422C1624.86 599.104 1606.66 592.318 1589.69 581.83C1576.73 573.81 1564.7 564.247 1553.6 553.759C1536.02 537.102 1522.14 517.36 1515.04 497.002C1509.8 482.195 1507.95 466.772 1509.18 450.732C1509.8 442.403 1511.03 434.075 1512.27 425.437C1515.04 408.78 1519.36 391.198 1524.3 373.615C1524.91 371.456 1525.53 369.605 1525.84 367.446C1539.41 318.4 1551.13 276.757 1560.39 244.368C1565.32 227.711 1571.8 213.213 1573.03 199.332C1574.27 185.451 1572.42 171.262 1567.48 157.689C1557.3 130.853 1535.09 106.792 1502.09 94.762C1495.61 92.2943 1488.82 90.4435 1481.73 89.2097C1473.71 87.6673 1465.38 87.0504 1456.74 87.0504C1445.95 87.0504 1435.46 88.2843 1425.28 90.4435C1421.27 91.3689 1417.26 92.2943 1413.56 93.5282C1383.33 101.857 1354.95 114.195 1325.95 125.917C1294.18 138.564 1260.56 150.286 1223.54 153.679C1214.9 154.604 1206.27 154.913 1197.32 154.604C1161.54 153.679 1124.52 145.042 1087.51 124.375C1081.34 120.982 1074.86 116.972 1069 112.653C1052.65 101.857 1038.15 89.5181 1024.58 76.5626C1009.47 62.0647 995.893 47.2583 983.555 32.7604C969.057 15.7948 956.718 -0.55393 944.996 -14.7434C936.668 -24.6143 928.648 -33.2513 921.861 -40.0376M1646.14 611.442C1641.82 611.442 1637.19 611.134 1632.57 610.517C1615.6 608.358 1597.09 603.114 1579.2 593.86C1565.94 586.765 1553.29 577.82 1541.88 567.64C1523.37 551.6 1508.87 532.475 1501.47 512.116C1495.92 497.31 1494.37 481.887 1496.23 465.847C1497.15 457.518 1498.38 449.189 1500.24 440.552C1503.63 423.895 1507.95 406.621 1512.88 388.73C1513.5 386.571 1514.12 384.72 1514.42 382.561C1527.69 333.515 1536.33 290.946 1542.49 257.941C1545.58 241.592 1550.52 227.711 1550.52 214.447C1550.21 201.183 1547.74 187.919 1541.88 175.272C1530.16 150.286 1507.33 128.385 1474.94 117.897C1468.46 115.738 1461.99 114.195 1454.89 113.27C1446.87 112.036 1438.85 111.419 1430.52 111.728C1420.03 112.036 1409.55 113.27 1399.68 115.429C1395.67 116.355 1391.96 117.28 1387.95 118.205C1358.03 126.226 1330.27 138.256 1301.89 149.052C1270.43 161.082 1237.42 171.262 1201.33 173.421C1193 174.038 1184.37 174.038 1175.73 173.421C1140.56 171.262 1104.78 161.391 1069.62 140.107C1063.45 136.405 1057.59 132.395 1052.03 128.076C1036.61 116.972 1022.73 104.324 1010.08 91.0605C995.893 76.2541 983.555 61.1393 972.45 46.3329C959.494 29.0588 949.007 12.7101 938.827 -2.09626C931.732 -12.2756 925.255 -20.9127 919.702 -28.3159M1636.58 616.686C1632.26 617.303 1627.63 617.612 1623 617.612C1606.35 617.612 1586.91 613.91 1568.41 605.582C1554.83 599.412 1541.57 591.084 1529.54 581.521C1509.8 566.098 1494.99 547.282 1487.28 527.231C1481.73 512.425 1480.18 497.31 1482.34 480.653C1483.58 472.324 1485.12 463.996 1486.97 455.359C1490.67 438.702 1495.61 421.427 1500.24 403.228C1500.85 401.069 1501.47 398.909 1501.78 397.059C1514.73 348.013 1520.29 304.827 1523.37 270.896C1524.91 255.164 1528 241.592 1526.76 228.636C1525.22 215.989 1521.52 203.342 1515.04 191.62C1502.09 168.485 1478.64 148.744 1446.56 139.798C1440.39 137.947 1433.61 136.713 1426.82 135.788C1419.11 134.863 1411.09 134.554 1402.76 134.863C1392.58 135.171 1382.4 136.713 1372.53 138.873C1368.83 139.798 1364.82 140.723 1361.12 141.649C1331.81 149.669 1304.36 161.082 1276.6 170.953C1245.44 182.058 1213.05 191.312 1177.58 191.929C1169.25 192.237 1160.92 191.929 1152.59 191.003C1118.05 187.61 1083.5 176.506 1050.49 154.604C1044.63 150.903 1039.08 146.584 1033.53 142.266C1019.03 130.853 1006.07 117.897 994.351 104.633C981.395 89.5181 969.982 74.4033 960.111 59.2885C948.698 42.0144 939.753 25.0487 931.424 10.2424C925.872 0.0630032 920.319 -8.88251 916.309 -16.5942M1627.01 621.622C1623 622.856 1618.38 623.781 1613.44 624.398C1596.78 626.249 1576.73 624.398 1557.61 617.303C1543.73 612.059 1529.85 604.348 1517.2 595.402C1496.53 580.904 1480.8 562.396 1473.09 542.346C1467.23 527.54 1466 512.425 1468.77 495.768C1470.01 487.439 1471.86 479.111 1474.02 470.474C1478.03 454.125 1483.27 436.542 1487.9 418.343C1488.51 416.184 1489.13 414.024 1489.44 412.173C1502.09 363.127 1504.86 319.325 1504.55 284.469C1504.25 269.354 1506.1 255.781 1503.32 243.443C1500.54 231.412 1495.92 219.691 1488.51 208.894C1474.02 187.61 1450.26 170.028 1418.49 162.625C1412.32 161.082 1405.84 160.157 1399.06 159.54C1391.35 158.923 1383.64 158.614 1375.61 159.231C1365.74 159.848 1355.87 161.391 1346.31 163.55C1342.61 164.475 1338.91 165.401 1335.21 166.326C1306.21 174.038 1279.37 184.834 1252.23 194.088C1221.38 204.267 1189.3 212.288 1155.06 211.671C1147.04 211.671 1139.02 211.054 1130.69 209.82C1096.76 205.193 1063.45 192.546 1032.29 170.336C1026.74 166.326 1021.5 162.008 1016.25 157.689C1002.06 145.659 990.032 132.703 979.236 118.822C967.206 103.708 957.335 87.9758 948.698 72.861C938.827 55.2784 931.424 38.3128 925.255 22.8895C920.936 12.4016 916.926 3.45613 914.15 -4.56398M1617.45 626.866C1613.44 628.717 1608.82 630.259 1603.88 631.493C1587.22 635.503 1566.56 635.194 1546.51 629.333C1532.01 625.015 1517.82 618.229 1504.55 609.592C1482.96 595.711 1466.61 577.511 1458.59 557.769C1452.42 543.272 1451.5 527.848 1454.58 510.883C1456.12 502.554 1458.28 494.225 1460.44 485.588C1464.76 469.24 1470.31 451.657 1474.94 433.458C1475.56 431.298 1475.87 429.139 1476.48 426.98C1488.51 377.934 1489.13 333.515 1485.12 297.733C1483.58 282.926 1483.27 269.971 1479.26 257.941C1475.25 246.527 1469.7 235.731 1461.37 225.86C1445.33 206.427 1421.27 191.003 1389.8 185.143C1383.64 183.909 1377.16 183.292 1370.68 182.675C1363.28 182.366 1355.56 182.366 1347.85 182.983C1337.98 183.909 1328.42 185.451 1319.17 187.61C1315.46 188.536 1311.76 189.461 1308.37 190.386C1279.68 198.098 1253.46 208.277 1226.93 216.606C1196.09 226.169 1164.93 232.955 1131.31 231.104C1123.6 230.796 1115.58 229.87 1107.56 228.328C1074.55 222.158 1042.47 208.586 1013.17 185.759C1007.92 181.749 1002.99 177.122 998.053 172.495C985.405 160.465 973.992 147.201 964.121 133.012C953.325 117.589 944.38 101.548 936.976 86.125C928.648 68.234 923.095 50.9599 918.468 35.2281C915.384 24.7403 912.916 15.4863 911.374 7.15772M1607.89 632.11C1603.88 634.577 1599.25 636.737 1594.32 638.587C1577.66 644.448 1556.38 645.991 1535.71 641.055C1520.9 637.662 1506.1 631.493 1492.22 623.164C1469.7 610.209 1452.73 592.318 1444.4 572.576C1438.23 558.078 1437.31 542.655 1441.01 525.689C1442.86 517.36 1445.02 509.032 1447.49 500.395C1452.11 484.046 1457.98 466.772 1462.6 448.264C1463.22 446.105 1463.53 443.945 1464.14 441.786C1475.87 392.74 1474.02 347.396 1466.3 310.997C1463.22 296.807 1461.37 283.852 1455.82 272.438C1450.57 261.951 1443.79 251.771 1434.84 242.517C1417.57 225.243 1392.89 211.671 1361.73 207.044C1355.56 206.118 1349.4 205.501 1342.92 205.501C1335.51 205.193 1328.11 205.81 1320.4 206.427C1310.84 207.352 1301.58 209.203 1292.33 211.362C1288.63 212.288 1285.23 213.213 1281.84 214.138C1253.77 221.85 1227.86 231.412 1201.95 238.816C1171.41 247.453 1140.87 253.005 1108.17 249.92C1100.46 249.303 1092.75 248.07 1085.04 246.219C1052.65 238.816 1021.8 224.009 994.351 200.566C989.416 196.247 984.789 191.929 980.162 186.993C968.131 174.655 957.952 161.082 949.007 146.893C939.136 131.161 931.424 115.121 925.563 99.389C918.777 81.1895 914.767 63.9155 911.991 47.8752C910.14 37.3874 908.906 27.8249 908.906 18.8794M1598.33 637.045C1594.32 640.13 1589.69 643.214 1584.75 645.374C1568.1 653.085 1546.2 656.479 1524.91 652.777C1509.8 650.309 1494.07 644.757 1479.88 637.045C1456.43 624.707 1438.54 607.124 1430.21 587.691C1423.74 573.193 1423.12 557.769 1427.13 540.495C1428.98 532.475 1431.45 524.147 1434.22 515.201C1439.16 499.161 1445.33 481.578 1449.96 462.762C1450.57 460.603 1450.88 458.443 1451.5 456.284C1462.91 407.238 1458.9 360.968 1447.18 323.952C1442.86 310.071 1438.85 297.733 1432.06 286.628C1425.89 276.757 1417.87 267.195 1408 259.174C1389.19 243.751 1364.2 232.338 1333.66 229.253C1327.8 228.636 1321.63 228.328 1315.16 228.636C1308.06 228.636 1300.66 229.253 1293.25 230.179C1284 231.412 1274.75 233.263 1265.8 235.423C1262.41 236.348 1258.71 237.273 1255.31 238.199C1227.55 245.602 1201.95 254.547 1176.96 261.334C1146.73 269.354 1116.81 273.672 1084.73 269.045C1077.33 268.12 1069.62 266.578 1062.21 264.418C1030.44 255.781 1000.83 239.433 975.535 215.372C970.908 211.054 966.589 206.427 962.271 201.491C951.166 188.844 941.603 174.963 933.583 160.465C924.638 144.425 918.16 128.076 913.533 112.036C908.289 93.8367 905.821 75.9456 904.896 59.5969C904.279 48.8006 904.587 38.9297 906.13 29.9842M1588.76 642.289C1584.75 645.991 1580.44 649.692 1575.19 652.468C1558.54 662.031 1536.33 667.275 1514.12 664.807C1498.38 662.956 1482.34 658.329 1467.54 651.235C1443.17 639.821 1424.66 622.547 1416.02 603.114C1409.55 588.616 1408.93 573.193 1413.56 555.919C1415.72 547.899 1418.49 539.57 1421.27 530.624C1426.82 514.584 1432.99 497.002 1437.62 478.185C1438.23 476.026 1438.54 473.867 1439.16 471.707C1450.26 422.97 1444.4 375.466 1428.36 337.833C1422.5 324.261 1416.95 312.231 1408.62 301.743C1401.22 292.489 1392.27 283.852 1381.48 276.448C1361.43 262.567 1335.82 253.622 1305.59 252.08C1299.73 251.771 1293.56 251.771 1287.39 252.08C1280.3 252.388 1273.2 253.314 1266.11 254.239C1257.16 255.781 1248.22 257.632 1239.58 259.791C1236.19 260.717 1232.8 261.642 1229.4 262.567C1201.95 269.971 1176.96 278.299 1152.59 284.16C1122.67 291.255 1093.37 294.34 1062.21 288.479C1055.12 287.245 1047.72 285.394 1040.31 282.926C1009.16 273.055 981.087 255.473 957.335 230.796C953.017 226.169 949.007 221.542 944.996 216.606C934.817 203.651 926.18 189.461 919.085 174.655C911.374 158.306 905.821 141.649 902.428 125.609C898.418 107.101 897.801 89.2097 899.035 72.5525C899.652 61.7562 901.194 51.5768 904.279 42.3228M1579.2 647.533C1575.19 651.851 1570.87 656.17 1565.63 659.563C1548.66 671.285 1526.15 677.763 1503.32 676.529C1487.28 675.603 1470.62 671.593 1455.2 664.807C1429.9 654.011 1410.78 637.045 1401.83 617.612C1395.05 603.114 1394.43 587.691 1399.68 570.108C1402.14 562.088 1404.92 553.759 1408.31 544.814C1414.17 528.774 1420.65 511.5 1425.28 492.375C1425.89 490.215 1426.2 488.056 1426.82 485.897C1437.31 437.159 1429.9 388.422 1409.55 350.48C1402.45 337.216 1395.05 325.495 1385.18 315.624C1376.54 306.987 1366.67 298.966 1354.95 292.797C1333.36 280.767 1307.44 273.981 1277.52 273.981C1271.66 273.981 1265.8 274.289 1259.63 274.906C1252.85 275.523 1245.75 276.448 1238.66 277.991C1229.71 279.533 1221.07 281.692 1212.74 283.852C1209.35 284.777 1206.27 285.702 1202.87 286.319C1176.04 293.414 1151.36 301.126 1127.3 306.37C1097.69 312.539 1068.69 314.698 1038.46 307.295C1031.37 305.753 1024.27 303.593 1017.18 300.817C986.948 289.404 959.803 270.588 938.21 245.602C934.2 240.975 930.499 236.039 926.797 231.104C917.235 217.84 909.523 203.651 903.662 188.536C896.567 172.187 892.249 155.53 890.09 138.873C887.93 120.365 888.547 102.165 891.632 84.8911C893.483 74.0948 896.567 63.607 900.886 54.0445M1569.33 652.777C1565.63 657.712 1561 662.648 1555.76 666.658C1538.79 680.23 1515.66 688.559 1491.91 688.559C1475.56 688.559 1458.28 685.166 1442.24 678.997C1416.02 669.126 1395.97 652.468 1387.03 633.035C1380.24 618.537 1379.62 603.114 1385.49 585.531C1387.95 577.511 1391.35 569.183 1394.74 560.546C1400.91 544.814 1407.7 527.231 1412.32 508.106C1412.94 505.947 1413.25 503.788 1413.86 501.629C1424.04 452.891 1414.48 402.611 1389.8 364.67C1381.48 351.714 1371.91 340.609 1360.81 331.047C1350.94 323.027 1339.83 315.932 1327.49 310.38C1304.67 300.2 1278.14 295.265 1248.53 297.116C1242.67 297.424 1237.11 298.041 1230.94 298.658C1224.16 299.583 1217.37 300.817 1210.59 302.36C1201.95 304.21 1193.62 306.37 1185.29 308.529C1182.21 309.454 1178.81 310.38 1175.73 310.997C1149.2 318.091 1125.14 325.186 1101.7 329.505C1072.08 334.749 1044.01 335.674 1014.71 327.345C1007.92 325.495 1000.83 323.027 994.043 319.942C964.43 307.295 938.827 287.245 918.777 261.642C915.075 256.707 911.682 251.771 908.289 246.527C899.652 232.955 892.866 218.457 887.622 203.034C882.069 186.068 878.985 169.102 878.059 152.445C877.134 133.629 879.602 115.121 884.537 97.5382C887.622 86.4335 892.249 75.9456 897.801 66.0747M1559.77 657.712C1543.73 682.081 1512.88 698.738 1481.11 700.281C1464.14 701.206 1446.56 698.43 1429.9 692.877C1402.76 683.624 1382.09 667.275 1372.84 648.15C1365.74 633.96 1365.44 618.229 1371.6 600.338C1374.38 592.318 1377.77 583.989 1381.48 575.352C1388.57 557.769 1396.9 538.028 1401.22 516.126C1411.09 467.389 1399.68 415.567 1370.68 377.625C1352.48 353.873 1328.73 336.908 1300.66 327.037C1266.42 315.315 1226.93 315.007 1183.13 325.803C1171.41 328.579 1160.31 331.664 1149.2 334.749C1089.36 350.789 1042.16 363.436 991.266 346.162C984.789 344.002 978.002 341.226 971.216 337.833C922.478 314.081 886.388 269.971 872.198 216.606C859.243 167.252 867.263 117.897 895.025 77.1795" stroke="url(#paint1_linear)" stroke-width="0.25" stroke-miterlimit="10"/>
</g>
<g clip-path="url(#clip2)">
<path d="M1245.74 322.718C1243.89 322.718 1242.66 321.484 1242.66 319.633V319.325C1242.66 317.474 1243.89 316.24 1245.74 316.24C1247.6 316.24 1248.83 317.474 1248.83 319.325C1248.83 321.176 1247.6 322.718 1245.74 322.718Z" fill="white"/>
<path d="M1245.74 302.668C1243.89 302.668 1242.66 301.434 1242.66 299.583V299.275C1242.66 297.424 1243.89 296.19 1245.74 296.19C1247.6 296.19 1248.83 297.424 1248.83 299.275C1248.83 301.125 1247.6 302.668 1245.74 302.668ZM1245.74 282.617C1243.89 282.617 1242.66 281.384 1242.66 279.533V279.224C1242.66 277.374 1243.89 276.14 1245.74 276.14C1247.6 276.14 1248.83 277.374 1248.83 279.224C1248.83 281.075 1247.6 282.617 1245.74 282.617ZM1245.74 262.567C1243.89 262.567 1242.66 261.333 1242.66 259.482V259.174C1242.66 257.323 1243.89 256.089 1245.74 256.089C1247.6 256.089 1248.83 257.323 1248.83 259.174C1248.83 261.025 1247.6 262.567 1245.74 262.567Z" fill="white"/>
<path d="M1245.74 242.516C1243.89 242.516 1242.66 241.282 1242.66 239.431C1242.66 237.581 1243.89 236.347 1245.74 236.347C1247.6 236.347 1248.83 237.581 1248.83 239.431C1248.83 241.282 1247.6 242.516 1245.74 242.516Z" fill="white"/>
<path d="M1265.8 308.529C1263.94 308.529 1262.71 307.295 1262.71 305.444C1262.71 303.593 1263.94 302.359 1265.8 302.359C1267.65 302.359 1268.88 303.593 1268.88 305.444C1268.88 307.295 1267.34 308.529 1265.8 308.529Z" fill="white"/>
<path d="M1265.8 288.478C1263.94 288.478 1262.71 287.245 1262.71 285.394V285.085C1262.71 283.234 1263.94 282.001 1265.8 282.001C1267.65 282.001 1268.88 283.234 1268.88 285.085C1268.88 286.936 1267.34 288.478 1265.8 288.478ZM1265.8 268.428C1263.94 268.428 1262.71 267.194 1262.71 265.343C1262.71 263.493 1263.94 262.259 1265.8 262.259C1267.65 262.259 1268.88 263.493 1268.88 265.343C1268.88 267.194 1267.34 268.428 1265.8 268.428ZM1265.8 248.378C1263.94 248.378 1262.71 247.144 1262.71 245.293C1262.71 243.442 1263.94 242.208 1265.8 242.208C1267.65 242.208 1268.88 243.442 1268.88 245.293C1268.88 247.144 1267.34 248.378 1265.8 248.378Z" fill="white"/>
<path d="M1265.8 228.328C1263.94 228.328 1262.71 227.094 1262.71 225.243C1262.71 223.392 1263.94 222.158 1265.8 222.158C1267.65 222.158 1268.88 223.392 1268.88 225.243C1268.88 227.094 1267.34 228.328 1265.8 228.328Z" fill="white"/>
</g>
<g clip-path="url(#clip3)">
<path d="M1213.05 506.256C1261.17 495.768 1320.09 509.341 1339.83 554.377C1359.57 599.413 1349.09 656.171 1304.05 676.221C1259.01 695.963 1208.43 654.937 1178.2 616.07C1139.64 566.098 1164.93 516.744 1213.05 506.256Z" fill="url(#paint2_linear)"/>
</g>
<g clip-path="url(#clip4)">
<path d="M399.903 678.575C367.162 703.86 326.317 715.854 285.472 704.832C239.115 692.514 183.358 640.971 205.078 588.78C219.989 552.797 254.676 559.604 285.147 566.736C304.598 571.275 323.724 576.137 343.498 575.489C363.272 574.84 383.695 571.599 403.793 575.489C411.573 577.11 419.678 579.703 425.513 584.89C441.721 599.153 441.721 627.032 431.348 644.537C424.216 657.179 412.546 668.849 399.903 678.575Z" fill="url(#paint3_linear)"/>
</g>
<g clip-path="url(#clip5)">
<rect x="-594" y="340.469" width="1072.87" height="753.11" fill="url(#pattern1)"/>
<path d="M-502.26 630.276C-503.557 632.221 -505.178 634.49 -506.475 636.759C-580.385 756.702 -503.557 893.177 -383.29 943.099C-329.478 965.143 -265.293 970.978 -213.426 940.83C-160.262 910.034 -141.784 848.117 -100.291 805.651C-51.0168 755.405 32.6188 757.026 79.6234 811.486C109.447 845.848 117.227 893.501 130.194 937.264C147.05 993.021 177.522 1036.14 237.818 1043.59C333.124 1055.59 444.638 969.357 413.518 865.947C400.875 824.453 365.541 792.685 325.992 774.531C278.987 752.812 222.906 752.163 173.308 738.224C138.946 728.499 93.8867 707.752 79.9474 671.769C63.4149 628.979 99.3976 595.266 113.337 557.986C127.6 520.382 120.793 474.675 93.8868 444.527C60.1732 407.247 -10.1716 393.308 -47.1269 432.857C-82.1371 469.812 -80.5163 523.624 -106.774 565.118C-120.065 586.189 -142.108 603.37 -167.069 604.342C-181.981 604.991 -196.569 599.804 -209.86 593.321C-267.238 565.442 -301.6 533.349 -369.027 545.344C-422.191 554.744 -471.788 585.54 -502.26 630.276Z" fill="url(#paint4_linear)"/>
</g>
<g clip-path="url(#clip6)">
<path d="M51.0972 560.904C49.1521 560.904 47.8555 559.608 47.8555 557.663V557.338C47.8555 555.393 49.1521 554.097 51.0972 554.097C53.0422 554.097 54.3389 555.393 54.3389 557.338C54.3389 559.283 53.0422 560.904 51.0972 560.904Z" fill="white"/>
<path d="M51.0972 539.832C49.1521 539.832 47.8555 538.536 47.8555 536.591V536.267C47.8555 534.322 49.1521 533.025 51.0972 533.025C53.0422 533.025 54.3389 534.322 54.3389 536.267C54.3389 538.212 53.0422 539.832 51.0972 539.832ZM51.0972 518.761C49.1521 518.761 47.8555 517.465 47.8555 515.52C47.8555 513.575 49.1521 512.278 51.0972 512.278C53.0422 512.278 54.3389 513.575 54.3389 515.52C54.3389 517.465 53.0422 518.761 51.0972 518.761ZM51.0972 497.69C49.1521 497.69 47.8555 496.394 47.8555 494.449C47.8555 492.504 49.1521 491.207 51.0972 491.207C53.0422 491.207 54.3389 492.504 54.3389 494.449C54.3389 496.394 53.0422 497.69 51.0972 497.69Z" fill="white"/>
<path d="M51.0972 476.62C49.1521 476.62 47.8555 475.323 47.8555 473.378C47.8555 471.433 49.1521 470.136 51.0972 470.136C53.0422 470.136 54.3389 471.433 54.3389 473.378C54.3389 475.323 53.0422 476.62 51.0972 476.62Z" fill="white"/>
</g>
<g clip-path="url(#clip7)">
<path d="M-437.747 133.324C-421.863 138.835 -405.006 146.291 -388.149 155.692C-364.16 168.983 -340.82 184.219 -315.859 200.427C-275.986 226.685 -234.493 253.915 -187.164 274.338C-178.736 277.904 -170.307 281.145 -161.879 284.063C-40.9638 325.557 52.397 277.58 127.604 239.003C166.505 218.905 203.46 200.103 243.008 191.999C264.728 187.46 288.392 189.081 310.111 196.537C318.216 199.455 326.32 203.021 333.452 207.235C388.236 239.976 408.335 309.996 379.159 366.402C370.083 384.231 353.874 402.385 337.017 421.511C307.194 454.9 273.805 492.828 257.596 547.612C230.366 640.325 267.645 743.735 362.627 839.041C367.489 843.903 372.352 848.766 377.214 853.628M367.165 859.463C362.303 855.249 357.44 851.035 352.578 846.821C335.072 831.585 318.864 815.376 304.601 798.519C293.579 785.228 283.53 771.937 274.777 757.998C261.162 736.279 250.464 714.235 243.981 692.192C239.118 676.308 236.201 660.423 235.228 644.539C234.58 635.462 234.58 626.71 235.228 617.957C236.201 599.804 239.443 581.65 244.629 563.821C245.278 561.552 245.926 559.607 246.574 557.662C262.783 506.119 291.958 468.515 317.243 436.098C332.155 416.972 346.743 399.467 354.847 382.286C362.951 364.133 366.193 345.007 364.896 326.205C362.303 287.953 340.583 251.646 304.276 231.223C297.145 227.009 289.365 223.767 281.26 221.174C271.859 218.257 262.134 216.312 252.409 215.339C240.091 214.367 227.448 215.015 215.454 217.608C210.916 218.581 206.377 219.553 201.839 220.85C167.801 229.927 135.708 246.135 101.995 262.992C67.3087 280.173 28.7326 298.975 -14.3819 309.672C-24.4312 312.266 -34.8045 314.211 -45.178 315.507C-86.6716 321.342 -131.731 318.425 -181.005 300.271C-189.109 297.354 -197.213 293.788 -205.318 290.222C-226.713 280.173 -246.811 268.827 -265.937 256.833C-287.332 243.218 -307.755 228.954 -327.529 214.691C-350.87 198.158 -372.265 182.598 -394.308 168.983C-409.868 159.258 -425.428 151.478 -439.692 145.967M357.116 864.974C352.253 861.408 347.391 857.842 342.528 854.277C325.023 840.986 308.166 826.722 293.255 811.162C281.585 798.844 271.211 786.201 261.81 772.91C247.223 752.163 235.877 730.444 229.069 708.076C224.207 692.192 221.613 676.308 220.965 660.099C220.641 651.347 220.965 642.27 221.613 633.517C222.91 615.364 226.476 597.21 231.663 579.381C232.311 577.112 232.959 575.167 233.608 572.898C249.492 521.355 275.101 482.13 297.469 449.713C310.436 430.912 323.402 414.055 330.21 397.198C337.017 379.693 339.287 361.539 337.017 343.71C332.803 307.403 310.76 273.365 274.777 254.563C267.645 250.673 259.865 247.756 252.085 245.487C243.008 242.893 233.283 241.273 223.882 240.624C211.564 239.652 199.57 240.624 187.9 243.218C183.361 244.19 178.823 245.163 174.285 246.459C140.895 255.536 109.127 271.096 76.0613 286.98C41.6994 303.513 3.77159 320.694 -38.6946 330.095C-48.4196 332.364 -58.4689 333.985 -68.8423 334.957C-109.363 339.496 -153.451 335.282 -200.455 316.48C-208.235 313.238 -216.015 309.672 -223.795 305.782C-244.218 295.409 -263.668 283.739 -281.821 271.42C-302.244 257.481 -321.37 242.893 -339.848 228.63C-361.567 211.773 -381.341 195.889 -401.44 181.95C-415.703 172.225 -429.643 164.12 -442.609 157.961M347.067 870.485C342.204 867.567 337.342 864.65 332.479 861.732C314.65 850.711 297.469 838.392 281.909 823.805C269.914 812.459 258.893 800.464 248.843 787.498C233.283 767.399 221.289 746.004 214.157 723.96C208.971 708.076 206.701 692.192 206.377 675.983C206.377 667.231 206.701 658.154 207.674 649.402C209.619 631.572 213.185 613.095 218.372 594.941C219.02 592.672 219.668 590.727 220.317 588.458C235.877 536.915 258.244 496.394 277.37 463.653C288.392 444.851 299.738 428.642 305.249 412.434C310.76 395.577 311.732 378.396 308.815 361.215C302.98 327.177 280.612 295.085 244.953 277.904C237.822 274.338 230.366 271.744 222.586 269.475C213.509 267.206 204.108 265.585 194.707 265.261C182.713 264.613 170.719 265.585 159.373 268.179C154.834 269.151 150.62 270.124 146.082 271.42C113.017 280.497 81.8963 295.409 49.4794 310.321C15.4416 325.881 -21.8378 342.089 -63.3314 349.869C-73.0565 351.814 -82.7816 353.111 -92.8308 353.759C-132.704 357.001 -175.17 351.49 -220.554 332.04C-228.009 328.798 -235.465 324.908 -242.921 321.018C-262.696 310.321 -280.849 298.326 -298.03 285.684C-317.48 271.42 -335.309 256.509 -352.166 241.921C-372.589 225.388 -390.742 209.18 -409.22 194.916C-422.187 184.867 -434.829 176.763 -446.175 170.28M337.017 875.996C332.479 873.727 327.292 871.782 322.43 869.188C304.601 860.436 286.771 849.738 270.563 836.123C257.92 825.75 246.574 814.404 235.877 802.085C219.344 782.959 206.377 761.888 199.246 739.845C194.059 724.285 191.79 708.076 192.114 691.544C192.438 682.791 193.086 673.714 194.059 664.962C196.328 647.132 200.218 628.979 205.405 610.501C206.053 608.232 206.701 606.287 207.35 604.018C222.586 552.475 241.388 510.657 257.596 477.592C266.673 459.114 276.722 443.23 280.612 427.67C284.502 411.461 284.826 394.929 280.936 379.044C273.48 346.952 250.788 317.128 215.454 301.568C208.646 298.326 201.191 296.057 193.41 294.112C184.658 291.843 175.257 290.87 166.18 290.546C154.51 290.222 142.84 291.195 131.494 293.788C127.28 294.76 122.742 295.733 118.527 297.03C85.7863 305.782 55.3144 320.37 23.2217 334.309C-10.8161 349.221 -47.4472 364.133 -87.9683 370.292C-97.3692 371.913 -107.094 372.885 -116.819 373.209C-156.368 375.479 -197.538 368.671 -240.652 348.573C-247.784 345.331 -254.915 341.441 -262.047 337.227C-280.849 326.205 -298.03 314.211 -314.238 301.244C-332.392 286.656 -348.925 271.42 -364.809 256.833C-383.286 239.003 -399.819 222.471 -416.028 208.207C-427.698 198.158 -438.719 189.73 -448.769 182.922M326.644 881.183C322.106 879.562 317.243 878.265 312.056 876.32C294.227 869.837 275.749 860.76 258.569 848.441C245.602 839.04 233.283 828.343 222.262 816.673C204.756 798.195 191.141 777.448 183.685 755.729C178.175 740.169 176.23 723.96 177.202 707.428C177.526 698.675 178.499 689.923 179.795 680.846C182.389 663.017 186.603 644.863 191.79 626.386C192.438 624.116 193.086 622.171 193.735 619.902C208.646 568.359 223.882 525.569 237.173 491.855C244.305 473.702 252.733 458.466 255.327 443.23C257.92 427.994 256.948 412.11 252.409 397.198C243.333 367.05 220.317 339.496 185.306 325.232C178.499 322.315 171.043 320.046 163.587 318.425C154.834 316.48 146.082 315.507 137.005 315.507C125.659 315.183 113.989 316.48 103.291 318.749C99.0773 319.721 94.8631 320.694 90.6489 321.991C58.5561 330.743 28.4084 344.683 -3.03601 357.649C-36.7496 371.589 -72.7324 385.204 -112.281 390.39C-121.358 391.687 -131.083 392.335 -140.484 392.335C-179.06 392.66 -218.933 384.879 -260.102 363.809C-266.91 360.243 -273.717 356.353 -280.525 352.138C-298.354 340.792 -314.887 328.474 -330.123 315.183C-347.304 300.271 -362.54 285.035 -377.127 269.799C-393.984 252.294 -408.572 235.438 -422.835 220.85C-432.884 210.476 -442.609 202.048 -451.362 194.916M316.595 886.693C312.056 885.721 307.194 885.073 302.007 883.776C284.178 879.238 265.052 872.106 247.223 861.084C233.607 852.656 220.965 842.606 209.295 831.585C190.817 814.079 176.23 793.333 168.774 771.938C163.263 756.377 161.318 740.169 162.614 723.312C163.263 714.56 164.559 705.807 165.856 696.73C168.774 679.225 173.312 660.747 178.499 642.27C179.147 640.001 179.795 638.056 180.12 635.786C194.383 584.244 206.701 540.481 216.427 506.443C221.613 488.938 228.421 473.702 229.717 459.114C231.014 444.527 229.069 429.615 223.882 415.351C213.185 387.149 189.845 361.863 155.159 349.221C148.351 346.628 141.219 344.683 133.763 343.386C125.335 341.765 116.582 341.117 107.506 341.117C96.1597 341.117 85.138 342.413 74.4404 344.683C70.2262 345.655 66.012 346.628 62.122 347.924C30.3534 356.677 0.52984 369.644 -29.9421 381.962C-63.3315 395.253 -98.6659 407.571 -137.566 411.137C-146.643 412.11 -155.72 412.434 -165.121 412.11C-202.724 411.137 -241.625 402.06 -280.525 380.341C-287.008 376.775 -293.816 372.561 -299.975 368.023C-317.156 356.677 -332.392 343.71 -346.655 330.095C-362.54 314.859 -376.803 299.299 -389.77 284.063C-405.006 266.234 -417.973 249.053 -430.291 234.141C-439.044 223.767 -447.472 214.691 -454.604 207.559M306.546 892.204C302.007 892.204 297.145 891.88 292.282 891.232C274.453 888.963 255.003 883.452 236.201 873.727C222.262 866.271 208.971 856.87 196.976 846.172C177.526 829.315 162.29 809.217 154.51 787.822C148.675 772.262 147.054 756.053 148.999 739.196C149.972 730.444 151.269 721.691 153.214 712.615C156.779 695.109 161.318 676.956 166.504 658.154C167.153 655.885 167.801 653.94 168.125 651.671C182.065 600.128 191.141 555.392 197.625 520.706C200.866 503.525 206.053 488.938 206.053 474.999C205.729 461.059 203.136 447.12 196.976 433.829C184.658 407.571 160.669 384.555 126.632 373.534C119.824 371.264 113.017 369.644 105.561 368.671C97.1323 367.374 88.7038 366.726 79.9513 367.05C68.9295 367.374 57.9078 368.671 47.5344 370.94C43.3202 371.913 39.4302 372.885 35.216 373.858C3.77155 382.286 -25.4037 394.929 -55.2273 406.275C-88.2925 418.917 -122.979 429.615 -160.906 431.884C-169.659 432.532 -178.736 432.532 -187.812 431.884C-224.768 429.615 -262.371 419.241 -299.327 396.874C-305.81 392.984 -311.969 388.77 -317.804 384.231C-334.013 372.561 -348.6 359.27 -361.891 345.331C-376.803 329.771 -389.77 313.886 -401.44 298.326C-415.055 280.173 -426.077 262.992 -436.774 247.432C-444.23 236.734 -451.038 227.657 -456.873 219.877M296.496 897.715C291.958 898.363 287.095 898.688 282.233 898.688C264.728 898.688 244.305 894.798 224.855 886.045C210.591 879.562 196.652 870.809 184.01 860.76C163.263 844.551 147.703 824.777 139.598 803.706C133.763 788.146 132.143 772.262 134.412 754.757C135.708 746.004 137.329 737.251 139.274 728.175C143.164 710.67 148.351 692.516 153.214 673.39C153.862 671.121 154.51 668.852 154.834 666.907C168.449 615.364 174.285 569.98 177.526 534.322C179.147 517.789 182.389 503.525 181.092 489.91C179.471 476.619 175.581 463.328 168.774 451.01C155.159 426.697 130.522 405.951 96.8081 396.55C90.3247 394.605 83.193 393.308 76.0613 392.335C67.957 391.363 59.5286 391.039 50.776 391.363C40.0785 391.687 29.3809 393.308 19.0075 395.577C15.1175 396.55 10.9032 397.522 7.0132 398.495C-23.7829 406.923 -52.6339 418.917 -81.8091 429.291C-114.55 440.961 -148.588 450.686 -185.867 451.334C-194.62 451.658 -203.373 451.334 -212.125 450.362C-248.432 446.796 -284.739 435.126 -319.425 412.11C-325.584 408.22 -331.419 403.681 -336.93 399.143C-352.166 387.149 -365.781 373.534 -378.1 359.594C-391.715 343.71 -403.709 327.826 -414.083 311.941C-426.077 293.788 -435.478 275.959 -444.23 260.399C-450.065 249.701 -455.9 240.3 -460.115 232.196M286.447 902.902C282.233 904.199 277.37 905.171 272.184 905.819C254.678 907.764 233.608 905.819 213.509 898.363C198.921 892.853 184.334 884.748 171.043 875.347C149.323 860.112 132.791 840.661 124.687 819.59C118.527 804.03 117.231 788.146 120.148 770.641C121.445 761.888 123.39 753.136 125.659 744.059C129.873 726.878 135.384 708.4 140.247 689.274C140.895 687.005 141.543 684.736 141.868 682.791C155.159 631.248 158.076 585.216 157.752 548.585C157.428 532.701 159.373 518.437 156.455 505.47C153.538 492.828 148.675 480.509 140.895 469.163C125.659 446.796 100.698 428.318 67.3087 420.538C60.8253 418.917 54.0177 417.945 46.886 417.296C38.7818 416.648 30.6776 416.324 22.2492 416.972C11.8758 417.621 1.50237 419.241 -8.54688 421.511C-12.4369 422.483 -16.327 423.456 -20.217 424.428C-50.6889 432.532 -78.8916 443.878 -107.418 453.603C-139.835 464.301 -173.549 472.729 -209.532 472.081C-217.96 472.081 -226.389 471.433 -235.141 470.136C-270.8 465.273 -305.81 451.983 -338.551 428.642C-344.386 424.428 -349.897 419.89 -355.408 415.351C-370.32 402.709 -382.962 389.094 -394.308 374.506C-406.951 358.622 -417.324 342.089 -426.401 326.205C-436.774 307.727 -444.554 289.898 -451.038 273.689C-455.576 262.668 -459.79 253.267 -462.708 244.838M276.398 908.413C272.184 910.358 267.321 911.979 262.134 913.275C244.629 917.489 222.91 917.165 201.839 911.006C186.603 906.468 171.691 899.336 157.752 890.259C135.06 875.672 117.879 856.546 109.451 835.799C102.967 820.563 101.995 804.354 105.236 786.525C106.857 777.773 109.127 769.02 111.396 759.943C115.934 742.762 121.769 724.285 126.632 705.159C127.28 702.889 127.604 700.62 128.253 698.351C140.895 646.808 141.543 600.128 137.329 562.524C135.708 546.964 135.384 533.349 131.17 520.706C126.956 508.712 121.121 497.366 112.368 486.993C95.5114 466.57 70.2262 450.362 37.1609 444.202C30.6776 442.906 23.87 442.257 17.0625 441.609C9.28241 441.285 1.1782 441.285 -6.92603 441.933C-17.2994 442.906 -27.3487 444.527 -37.0738 446.796C-40.9638 447.768 -44.8538 448.741 -48.4197 449.713C-78.5674 457.818 -106.122 468.515 -134 477.268C-166.417 487.317 -199.158 494.449 -234.493 492.504C-242.597 492.18 -251.025 491.207 -259.454 489.586C-294.14 483.103 -327.854 468.839 -358.65 444.851C-364.16 440.637 -369.347 435.774 -374.534 430.912C-387.825 418.269 -399.819 404.33 -410.192 389.418C-421.538 373.209 -430.939 356.353 -438.719 340.144C-447.472 321.342 -453.307 303.189 -458.17 286.656C-461.411 275.634 -464.005 265.909 -465.625 257.157M266.349 913.924C262.134 916.517 257.272 918.786 252.085 920.731C234.58 926.89 212.212 928.511 190.493 923.325C174.933 919.759 159.373 913.275 144.785 904.523C121.121 890.908 103.291 872.106 94.5389 851.359C88.0555 836.123 87.083 819.915 90.9731 802.085C92.9181 793.333 95.1872 784.58 97.7806 775.503C102.643 758.322 108.802 740.169 113.665 720.719C114.313 718.45 114.637 716.18 115.286 713.911C127.604 662.368 125.659 614.715 117.555 576.463C114.313 561.552 112.368 547.937 106.533 535.942C101.022 524.921 93.8906 514.223 84.4897 504.498C66.3362 486.344 40.4027 472.081 7.66158 467.218C1.1782 466.246 -5.3052 465.598 -12.1128 465.598C-19.8928 465.273 -27.6729 465.922 -35.7771 466.57C-45.8264 467.543 -55.5514 469.488 -65.2765 471.757C-69.1665 472.729 -72.7324 473.702 -76.2983 474.674C-105.798 482.779 -133.028 492.828 -160.258 500.608C-192.351 509.685 -224.444 515.52 -258.805 512.278C-266.91 511.63 -275.014 510.333 -283.118 508.388C-317.156 500.608 -349.573 485.048 -378.424 460.411C-383.611 455.873 -388.473 451.334 -393.336 446.147C-405.978 433.181 -416.676 418.917 -426.077 404.005C-436.45 387.473 -444.554 370.616 -450.714 354.083C-457.845 334.957 -462.06 316.804 -464.977 299.947C-466.922 288.925 -468.219 278.876 -468.219 269.475M256.299 919.11C252.085 922.352 247.223 925.594 242.036 927.863C224.531 935.967 201.515 939.533 179.147 935.643C163.263 933.05 146.73 927.215 131.818 919.11C107.181 906.144 88.3797 887.666 79.6271 867.243C72.8196 852.007 72.1712 835.799 76.3854 817.645C78.3305 809.217 80.9238 800.464 83.8413 791.064C89.028 774.207 95.5114 755.729 100.374 735.955C101.022 733.686 101.346 731.416 101.995 729.147C113.989 677.928 109.775 628.979 97.4564 590.079C92.9181 575.491 88.7038 562.524 81.5721 550.854C75.0887 540.481 66.6604 530.431 56.287 522.003C36.5126 505.795 10.2549 493.8 -21.8378 490.559C-27.997 489.91 -34.4804 489.586 -41.288 489.91C-48.7439 489.91 -56.524 490.559 -64.304 491.531C-74.0291 492.828 -83.7541 494.773 -93.1551 497.042C-96.7209 498.015 -100.611 498.987 -104.177 499.96C-133.352 507.74 -160.258 517.141 -186.516 524.272C-218.284 532.701 -249.729 537.239 -283.442 532.376C-291.222 531.404 -299.327 529.783 -307.107 527.514C-340.496 518.437 -371.616 501.256 -398.198 475.971C-403.061 471.433 -407.599 466.57 -412.138 461.383C-423.808 448.093 -433.857 433.505 -442.285 418.269C-451.686 401.412 -458.494 384.231 -463.356 367.374C-468.867 348.248 -471.46 329.447 -472.433 312.266C-473.081 300.92 -472.757 290.546 -471.136 281.145M246.25 924.621C242.036 928.511 237.498 932.401 231.987 935.319C214.482 945.368 191.141 950.879 167.801 948.286C151.269 946.341 134.412 941.478 118.852 934.022C93.2422 922.028 73.7921 903.874 64.7153 883.452C57.9078 868.216 57.2594 852.007 62.122 833.854C64.3912 825.425 67.3087 816.673 70.2262 807.272C76.0612 790.415 82.5446 771.938 87.4072 752.163C88.0555 749.894 88.3797 747.625 89.028 745.356C100.698 694.137 94.5389 644.215 77.6821 604.666C71.5229 590.403 65.6879 577.76 56.9353 566.738C49.1552 557.013 39.7543 547.937 28.4084 540.157C7.33739 525.569 -19.5687 516.168 -51.3372 514.547C-57.4965 514.223 -63.9798 514.223 -70.4632 514.547C-77.9191 514.871 -85.3749 515.844 -92.8308 516.816C-102.232 518.437 -111.633 520.382 -120.709 522.651C-124.275 523.624 -127.841 524.596 -131.407 525.569C-160.258 533.349 -186.516 542.102 -212.125 548.261C-243.57 555.717 -274.366 558.958 -307.107 552.799C-314.563 551.502 -322.343 549.557 -330.123 546.964C-362.864 536.591 -392.363 518.113 -417.324 492.18C-421.863 487.317 -426.077 482.454 -430.291 477.268C-440.989 463.653 -450.065 448.741 -457.521 433.181C-465.625 416 -471.46 398.495 -475.026 381.638C-479.241 362.188 -479.889 343.386 -478.592 325.881C-477.944 314.535 -476.323 303.837 -473.081 294.112M236.201 930.132C231.987 934.67 227.448 939.209 221.937 942.775C204.108 955.093 180.444 961.901 156.455 960.604C139.598 959.631 122.093 955.417 105.885 948.286C79.303 936.94 59.2045 919.11 49.8036 898.688C42.6719 883.452 42.0235 867.243 47.5344 848.766C50.1278 840.337 53.0453 831.585 56.6111 822.184C62.7704 805.327 69.5779 787.173 74.4405 767.075C75.0888 764.806 75.413 762.537 76.0613 760.267C87.0831 709.049 79.303 657.83 57.9079 617.957C50.452 604.018 42.6719 591.699 32.2985 581.326C23.2217 572.249 12.8483 563.821 0.529871 557.337C-22.162 544.695 -49.3922 537.563 -80.8366 537.563C-86.9958 537.563 -93.155 537.887 -99.6384 538.536C-106.77 539.184 -114.226 540.157 -121.682 541.777C-131.083 543.398 -140.16 545.667 -148.912 547.937C-152.478 548.909 -155.72 549.882 -159.286 550.53C-187.488 557.986 -213.422 566.09 -238.707 571.601C-269.827 578.084 -300.299 580.354 -332.068 572.573C-339.524 570.953 -346.98 568.683 -354.435 565.766C-386.204 553.772 -414.731 533.997 -437.423 507.74C-441.637 502.877 -445.527 497.69 -449.417 492.504C-459.466 478.564 -467.57 463.653 -473.73 447.768C-481.186 430.587 -485.724 413.082 -487.993 395.577C-490.262 376.127 -489.614 357.001 -486.372 338.847C-484.427 327.502 -481.186 316.48 -476.647 306.431M225.827 935.643C221.937 940.83 217.075 946.016 211.564 950.231C193.735 964.494 169.422 973.247 144.461 973.247C127.28 973.247 109.127 969.681 92.2697 963.197C64.7153 952.824 43.6444 935.319 34.2434 914.896C27.1117 899.66 26.4634 883.452 32.6226 864.974C35.216 856.546 38.7818 847.793 42.3477 838.716C48.8311 822.184 55.9628 803.706 60.8253 783.608C61.4736 781.338 61.7978 779.069 62.4462 776.8C73.1437 725.581 63.0945 672.742 37.1609 632.869C28.4084 619.254 18.3592 607.584 6.68907 597.534C-3.68435 589.106 -15.3544 581.65 -28.3212 575.815C-52.3097 565.118 -80.1883 559.931 -111.308 561.876C-117.468 562.2 -123.303 562.848 -129.786 563.497C-136.918 564.469 -144.05 565.766 -151.181 567.387C-160.258 569.332 -169.011 571.601 -177.763 573.87C-181.005 574.843 -184.571 575.815 -187.812 576.463C-215.691 583.919 -240.976 591.375 -265.613 595.914C-296.733 601.425 -326.233 602.397 -357.029 593.644C-364.16 591.699 -371.616 589.106 -378.748 585.864C-409.868 572.573 -436.774 551.502 -457.845 524.596C-461.735 519.41 -465.301 514.223 -468.867 508.712C-477.944 494.449 -485.076 479.213 -490.586 463.004C-496.421 445.175 -499.663 427.346 -500.636 409.841C-501.608 390.066 -499.015 370.616 -493.828 352.138C-490.586 340.468 -485.724 329.447 -479.889 319.073M215.778 940.83C198.921 966.439 166.504 983.944 133.115 985.565C115.286 986.537 96.8081 983.62 79.3029 977.785C50.7761 968.06 29.0567 950.879 19.3316 930.78C11.8758 915.869 11.5516 899.336 18.035 880.534C20.9525 872.106 24.5184 863.353 28.4084 854.276C35.8643 835.799 44.6168 815.052 49.1552 792.036C59.5286 740.817 47.5344 686.357 17.0625 646.484C-2.06351 621.523 -27.0245 603.694 -56.5239 593.32C-92.5067 581.002 -134 580.678 -180.032 592.024C-192.351 594.941 -204.021 598.183 -215.691 601.424C-278.58 618.281 -328.178 631.572 -381.666 613.419C-388.473 611.15 -395.605 608.232 -402.737 604.666C-453.955 579.705 -491.883 533.349 -506.795 477.268C-520.41 425.401 -511.982 373.534 -482.806 330.743" stroke="url(#paint5_linear)" stroke-width="0.25" stroke-miterlimit="10"/>
</g>
</g>
<defs>
<pattern id="pattern0" patternContentUnits="objectBoundingBox" width="1" height="1">
<use xlink:href="#image0"/>
</pattern>
<pattern id="pattern1" patternContentUnits="objectBoundingBox" width="1" height="1">
<use xlink:href="#image1"/>
</pattern>
<linearGradient id="paint0_linear" x1="1546.71" y1="674.27" x2="640.038" y2="-321.548" gradientUnits="userSpaceOnUse">
<stop stop-color="#4EE5D4"/>
<stop offset="1" stop-color="#20C4D7"/>
</linearGradient>
<linearGradient id="paint1_linear" x1="823.226" y1="269.062" x2="1602.05" y2="535.888" gradientUnits="userSpaceOnUse">
<stop stop-color="#3673CF"/>
<stop offset="1" stop-color="#20DCE2"/>
</linearGradient>
<linearGradient id="paint2_linear" x1="1372.55" y1="666.637" x2="1082.74" y2="457.508" gradientUnits="userSpaceOnUse">
<stop stop-color="#3378C4"/>
<stop offset="0.5966" stop-color="#20C4D7"/>
<stop offset="1" stop-color="white"/>
</linearGradient>
<linearGradient id="paint3_linear" x1="125.8" y1="514.041" x2="649.008" y2="816.26" gradientUnits="userSpaceOnUse">
<stop stop-color="#4EE5D4"/>
<stop offset="1" stop-color="#3378C4"/>
</linearGradient>
<linearGradient id="paint4_linear" x1="1094.86" y1="1540.1" x2="-349.547" y2="556.016" gradientUnits="userSpaceOnUse">
<stop stop-color="#3378C4"/>
<stop offset="1" stop-color="#4EE5D4"/>
</linearGradient>
<linearGradient id="paint5_linear" x1="-558.248" y1="532.382" x2="260.226" y2="812.791" gradientUnits="userSpaceOnUse">
<stop stop-color="#3673CF"/>
<stop offset="1" stop-color="#20DCE2"/>
</linearGradient>
<clipPath id="clip0">
<rect width="804.788" height="632.355" fill="white" transform="translate(672 -148)"/>
</clipPath>
<clipPath id="clip1">
<rect width="862.162" height="811.882" fill="white" transform="translate(866.336 -110.984)"/>
</clipPath>
<clipPath id="clip2">
<rect width="26.2196" height="100.56" fill="white" transform="translate(1242.66 222.158)"/>
</clipPath>
<clipPath id="clip3">
<rect width="190.015" height="178.602" fill="white" transform="translate(1159.38 502.863)"/>
</clipPath>
<clipPath id="clip4">
<rect width="238.264" height="148.145" fill="white" transform="translate(200.215 560.903)"/>
</clipPath>
<clipPath id="clip5">
<rect width="1073" height="753.045" fill="white" transform="translate(-594 340.469)"/>
</clipPath>
<clipPath id="clip6">
<rect width="6.48338" height="90.7674" fill="white" transform="translate(47.8555 470.136)"/>
</clipPath>
<clipPath id="clip7">
<rect width="906.053" height="853.213" fill="white" transform="translate(-512.957 133)"/>
</clipPath>
<image id="image0" xlink:href="data:image/png;base64,iVBORw0KGgoAAAANSUhEUgAABEQAAANaCAYAAACA/plGAAAACXBIWXMAAC4jAAAuIwF4pT92AAAA"/>
<image id="image1" xlink:href="data:image/png;base64,iVBORw0KGgoAAAANSUhEUgAABWcAAAPLCAYAAAAzIDuzAAAACXBIWXMAAC4jAAAuIwF4pT92AAAA"/>
</defs>
</svg>
