<svg width="20" height="20" viewBox="0 0 20 20" fill="none" xmlns="http://www.w3.org/2000/svg">
<path d="M19.996 7.64572C19.9939 7.62275 19.9893 7.60005 19.9823 7.57806C19.9777 7.55841 19.9714 7.53923 19.9633 7.52071C19.954 7.50263 19.9428 7.48552 19.93 7.4697C19.9171 7.4509 19.9023 7.4336 19.8857 7.41801C19.8803 7.41336 19.878 7.407 19.8723 7.40235L16.6665 4.91257V2.33213C16.6665 1.77984 16.2188 1.33208 15.6665 1.33208H12.0539L10.6075 0.209015C10.2502 -0.0696715 9.74909 -0.0696715 9.39177 0.209015L7.94501 1.33208H4.33249C3.78019 1.33208 3.33243 1.7798 3.33243 2.33213V4.91261L0.127624 7.40239C0.121959 7.40707 0.119615 7.4134 0.114303 7.41805C0.0977003 7.4336 0.0828167 7.45094 0.0699645 7.46973C0.0571513 7.48556 0.0459789 7.50263 0.0366425 7.52075C0.0285561 7.53923 0.0222277 7.55845 0.0176571 7.5781C0.0107037 7.59978 0.00613312 7.62213 0.00398458 7.64478C0.00398458 7.65177 0 7.65779 0 7.66478V18.9996C0.000468774 19.2117 0.069066 19.4179 0.195674 19.588C0.197666 19.591 0.198018 19.5946 0.200323 19.5973C0.202667 19.6 0.207667 19.603 0.210987 19.6066C0.398262 19.8531 0.689527 19.9983 0.999035 19.9997H19C19.3107 19.9987 19.6031 19.8527 19.7907 19.605C19.7933 19.6017 19.7973 19.6007 19.7996 19.5973C19.802 19.594 19.8023 19.591 19.8043 19.588C19.9309 19.4179 19.9995 19.2117 20 18.9997V7.66572C20 7.65873 19.9963 7.65271 19.996 7.64572ZM9.79944 0.735018C9.91586 0.642513 10.0807 0.642513 10.1971 0.735018L10.9661 1.33204H9.03272L9.79944 0.735018ZM1.08302 19.333L9.79948 12.5623C9.91597 12.4699 10.0807 12.4699 10.1972 12.5623L18.9159 19.333H1.08302ZM19.3333 18.8133L10.6075 12.0363C10.2501 11.7578 9.74917 11.7578 9.39177 12.0363L0.665659 18.8133V8.1734L6.12828 12.4153C6.27383 12.5282 6.4833 12.5017 6.59616 12.3561C6.70901 12.2106 6.68253 12.0011 6.53697 11.8882L0.987355 7.57904L3.33247 5.7566V8.3324C3.33247 8.51651 3.48174 8.66573 3.66581 8.66573C3.84992 8.66573 3.99915 8.51647 3.99915 8.3324V2.33209C3.99915 2.14798 4.14838 1.99875 4.33249 1.99875H15.6664C15.8505 1.99875 15.9997 2.14798 15.9997 2.33209V8.3324C15.9997 8.51651 16.1489 8.66573 16.3331 8.66573C16.5172 8.66573 16.6664 8.51647 16.6664 8.3324V5.7566L19.0115 7.57904L13.4522 11.8959C13.3566 11.9684 13.3073 12.0867 13.3231 12.2056C13.339 12.3246 13.4176 12.4258 13.5289 12.4707C13.6401 12.5156 13.767 12.4973 13.8609 12.4226L19.3332 8.1734V18.8133H19.3333Z" fill="white"/>
<path d="M13.9994 7.99912V6.66573C13.9994 4.45648 12.2085 2.66553 9.99923 2.66553C7.78997 2.66553 5.99902 4.45648 5.99902 6.66573C5.99902 8.87498 7.78997 10.6659 9.99923 10.6659C10.1833 10.6659 10.3326 10.5167 10.3326 10.3326C10.3326 10.1485 10.1833 9.99926 9.99923 9.99926C8.1582 9.99926 6.66574 8.5068 6.66574 6.66577C6.66574 4.82474 8.1582 3.33228 9.99923 3.33228C11.8403 3.33228 13.3327 4.82474 13.3327 6.66577V7.99916C13.3327 8.36738 13.0342 8.66587 12.666 8.66587C12.2978 8.66587 11.9993 8.36738 11.9993 7.99916V6.66577C11.9993 6.48166 11.8501 6.33243 11.666 6.33243C11.4818 6.33243 11.3326 6.48166 11.3326 6.66577C11.3326 7.40217 10.7356 7.99916 9.99923 7.99916C9.26282 7.99916 8.66584 7.40217 8.66584 6.66577C8.66584 5.92937 9.26282 5.33238 9.99923 5.33238C10.1833 5.33238 10.3326 5.18316 10.3326 4.99904C10.3326 4.81493 10.1833 4.66571 9.99923 4.66571C9.10406 4.66372 8.31656 5.25675 8.07124 6.11766C7.82591 6.97856 8.18245 7.89763 8.94421 8.36781C9.70597 8.83799 10.6873 8.74478 11.347 8.13956C11.4195 8.84451 12.0323 9.36868 12.74 9.33122C13.4477 9.29372 14.0017 8.70783 13.9994 7.99912Z" fill="white"/>
</svg>
