<svg width="213" height="29" viewBox="0 0 213 29" fill="none" xmlns="http://www.w3.org/2000/svg">
<g clip-path="url(#clip0)">
<path d="M9.23617 3.4094C7.84759 3.4094 7.44785 3.99101 7.44785 5.29461V7.44053H11.1507L10.772 10.9101H7.44785V21.4391H2.98755V10.9101H0V7.44053H2.98755V5.35477C2.98755 1.84509 4.46029 0 8.605 0C9.4676 0 10.3302 0.0401106 11.1928 0.140387V3.4094H9.23617ZM11.4663 14.861C11.4663 18.7718 13.423 21.7199 17.4835 21.7199C19.7136 21.7199 21.1022 20.657 21.7124 19.3133V21.4391H25.9833V7.44053H21.7124V9.58644C21.0602 8.24274 19.7136 7.1397 17.4835 7.1397C13.4019 7.1397 11.4663 10.0878 11.4663 13.9786V14.861ZM15.9056 13.9384C15.9056 11.8527 16.7051 10.4689 18.7879 10.4689C20.6183 10.4689 21.5441 11.7324 21.5441 13.7379V15.1418C21.5441 17.1473 20.6183 18.4108 18.7879 18.4108C16.7261 18.4108 15.9056 17.027 15.9056 14.9412V13.9384ZM35.2405 7.1397C30.0228 7.1397 27.6454 9.80705 27.6454 14.0989V14.7407C27.6454 19.0325 30.0228 21.6999 35.2405 21.6999C36.9657 21.6999 38.6068 21.3389 39.5115 20.7573L38.5016 17.7891C37.5759 18.2102 36.566 18.4308 35.5351 18.4308C33.1366 18.4308 32.0846 17.1072 32.0846 14.8409V14.0187C32.0846 11.7524 33.1366 10.4288 35.5351 10.4288C36.566 10.4288 37.5759 10.6494 38.5016 11.0705L39.4904 8.0823C38.6068 7.50069 36.9657 7.1397 35.2405 7.1397ZM40.0795 14.9613C40.0795 19.0726 42.1834 21.74 47.8009 21.74C49.9258 21.74 52.3453 21.2988 53.5235 20.7171L52.724 17.8091C51.2302 18.3707 49.6102 18.6715 47.9902 18.6715C45.5076 18.6715 44.624 17.8091 44.5398 15.9039H53.9232V13.6577C53.9232 9.787 51.9035 7.1397 47.338 7.1397C42.499 7.1397 40.1216 9.74689 40.1216 13.7178L40.0795 14.9613ZM44.5398 13.1362C44.5398 11.251 45.3182 10.0477 47.317 10.0477C49.2736 10.0477 49.9048 11.251 49.9048 12.7752V13.1362H44.5398ZM70.3758 13.9986C70.3758 10.0878 68.3982 7.15975 64.3166 7.15975C62.2547 7.15975 60.8241 8.16252 60.1719 9.38589V0.0401106L55.7326 0.421162V21.4391H59.9404V19.3133C60.5506 20.657 62.1075 21.7199 64.3166 21.7199C68.3982 21.7199 70.3758 18.7718 70.3758 14.8811V13.9986ZM65.9366 14.9613C65.9366 16.9267 65.1371 18.3907 63.0121 18.3907C61.1817 18.3907 60.1929 17.1473 60.1929 15.1618V13.6978C60.1929 11.6923 61.1817 10.4689 63.0121 10.4689C65.1371 10.4689 65.9366 11.9329 65.9366 13.9184V14.9613ZM71.8486 14.7808C71.8486 18.8119 74.247 21.7199 79.1702 21.7199C84.0933 21.7199 86.4918 18.8119 86.4918 14.7808V14.0788C86.4918 10.0477 84.0723 7.1397 79.1702 7.1397C74.2681 7.1397 71.8486 10.0477 71.8486 14.0788V14.7808ZM82.0525 15.0816C82.0525 16.9267 81.2531 18.4108 79.1912 18.4108C77.1294 18.4108 76.3299 16.9467 76.3299 15.0816V13.7981C76.3299 11.953 77.1294 10.4889 79.1912 10.4889C81.2531 10.4889 82.0525 11.9329 82.0525 13.778V15.0816ZM87.9856 14.7808C87.9856 18.8119 90.4051 21.7199 95.3072 21.7199C100.209 21.7199 102.629 18.8119 102.629 14.7808V14.0788C102.629 10.0477 100.209 7.1397 95.3072 7.1397C90.4051 7.1397 87.9856 10.0477 87.9856 14.0788V14.7808ZM98.1685 15.0816C98.1685 16.9267 97.369 18.4108 95.2861 18.4108C93.2033 18.4108 92.4248 16.9467 92.4248 15.0816V13.7981C92.4248 11.953 93.2243 10.4889 95.2861 10.4889C97.348 10.4889 98.1685 11.953 98.1685 13.7981V15.0816ZM108.73 0.0401106L104.27 0.421162V21.4391H108.709V14.5802L113.275 21.4191H118.029L113.233 14.3396L117.819 7.44053H113.106L108.709 14.1189L108.73 0.0401106Z" fill="#4267B2"/>
<path d="M127.602 19.2327C127.602 18.0695 128.654 17.0667 130.001 16.5654C128.591 15.7431 127.623 14.1988 127.623 12.2936C127.623 9.3254 129.938 7.03909 133.388 7.03909C134.587 7.01903 135.786 7.29981 136.859 7.86136L140.92 7.56053L141.025 9.44573L137.785 9.1449C138.479 9.80672 138.963 11.1504 138.963 12.2936C138.963 15.2618 136.523 17.4277 133.262 17.4277C132.525 17.4277 131.768 17.2874 131.074 17.0266C130.295 17.3275 129.433 17.9091 129.433 18.7113C129.433 19.5937 130.127 20.1553 132.757 20.1553H134.65C138.921 20.1553 140.731 21.519 140.731 23.8254C140.731 26.9139 137.112 29.0197 133.009 29.0197C129.075 29.0197 126.382 27.3752 126.382 24.9284C126.382 23.3441 127.665 21.9402 129.559 21.4789C128.339 21.0377 127.602 20.2355 127.602 19.2327ZM128.339 24.5674C128.339 26.212 130.232 27.4353 133.346 27.4353C136.397 27.4353 138.858 26.0315 138.858 24.1262C138.858 22.4817 137.322 21.9001 134.398 21.9001C133.409 21.9001 132.147 21.86 131.326 21.7998C129.538 22.2811 128.339 23.3842 128.339 24.5674ZM133.367 15.9035C135.618 15.9035 137.028 14.3793 137.028 12.2334C137.028 10.1477 135.765 8.6034 133.283 8.6034C131.011 8.6034 129.601 10.1677 129.601 12.3337C129.58 14.3392 130.99 15.9035 133.367 15.9035Z" fill="#4267B2"/>
<path d="M151.23 19.7541C150.241 20.9173 148.663 21.8198 146.938 21.8198C144.245 21.8198 142.288 20.1753 142.288 17.9491C142.288 15.4222 144.371 13.3364 151.187 12.9754V12.1531C151.187 9.94705 150.157 8.82395 147.737 8.82395C146.138 8.82395 144.181 9.62616 142.94 10.5086L142.498 8.74373C143.803 7.86129 146.033 7.05908 147.947 7.05908C151.335 7.05908 153.228 8.52312 153.207 12.0729V18.7914C153.207 19.7942 153.397 20.2354 154.68 20.1953L154.554 21.7596C152.639 21.88 151.566 21.158 151.356 19.7742L151.23 19.7541ZM151.209 14.2389C146.18 14.7804 144.392 15.8634 144.392 17.7285C144.392 19.2327 145.675 20.1753 147.4 20.1753C148.978 20.1753 150.325 19.3129 151.209 18.3502V14.2389Z" fill="#4267B2"/>
<path d="M174.898 21.4192V12.4144C174.898 9.96763 173.909 8.84453 171.784 8.84453C170.206 8.84453 168.775 9.64674 167.639 10.6495C167.681 10.83 167.702 11.5721 167.702 11.913V21.4393H165.725V12.4144C165.725 9.96763 164.736 8.84453 162.611 8.84453C161.075 8.84453 159.665 9.50636 158.55 10.469V21.4393H156.573V7.44066L158.55 7.03955V8.96486C160.065 7.66127 161.685 7.03955 163.2 7.03955C165.03 7.03955 166.461 7.80165 167.176 9.36597C168.817 7.80165 170.669 7.03955 172.373 7.03955C175.15 7.03955 176.896 8.78436 176.896 11.8528V21.4192H174.898Z" fill="#4267B2"/>
<path d="M181.063 4.23195C180.158 4.23195 179.716 3.55007 179.716 2.82808C179.716 2.12615 180.158 1.48438 181.063 1.48438C181.967 1.48438 182.409 2.12615 182.409 2.82808C182.409 3.57013 181.946 4.23195 181.063 4.23195ZM180.074 21.4194V7.44081L182.052 7.0397V21.4194H180.074Z" fill="#4267B2"/>
<path d="M195.054 21.4192V12.3943C195.054 9.94757 194.023 8.84453 191.814 8.84453C190.215 8.84453 188.574 9.6668 187.354 10.83V21.4192H185.376V7.44066L187.354 7.03955V9.32586C188.89 7.86182 190.825 7.03955 192.361 7.03955C195.307 7.03955 197.032 8.78436 197.032 11.8328V21.4192H195.054Z" fill="#4267B2"/>
<path d="M199.576 19.2327C199.576 18.0695 200.628 17.0667 201.975 16.5654C200.565 15.7431 199.597 14.2189 199.597 12.2936C199.597 9.3254 201.912 7.03909 205.362 7.03909C206.561 7.01903 207.761 7.29981 208.834 7.86136L212.894 7.56053L212.999 9.44573L209.759 9.1449C210.454 9.80672 210.938 11.1504 210.938 12.2936C210.938 15.2618 208.497 17.4277 205.236 17.4277C204.5 17.4077 203.763 17.2874 203.069 17.0266C202.29 17.3275 201.428 17.9091 201.428 18.7113C201.428 19.5937 202.122 20.1553 204.752 20.1553H206.646C210.917 20.1553 212.726 21.519 212.726 23.8254C212.726 26.9139 209.107 29.0197 205.005 29.0197C201.07 29.0197 198.377 27.3752 198.377 24.9284C198.377 23.3441 199.661 21.9402 201.554 21.4789C200.313 21.0377 199.576 20.2355 199.576 19.2327ZM200.313 24.5674C200.313 26.212 202.206 27.4353 205.32 27.4353C208.371 27.4353 210.832 26.0315 210.832 24.1262C210.832 22.4817 209.297 21.9001 206.372 21.9001C205.383 21.9001 204.121 21.86 203.3 21.7998C201.512 22.2811 200.313 23.3842 200.313 24.5674ZM205.341 15.9035C207.592 15.9035 209.002 14.3793 209.002 12.2334C209.002 10.1477 207.719 8.6034 205.257 8.6034C202.985 8.6034 201.575 10.1677 201.575 12.3337C201.554 14.3392 202.964 15.9035 205.341 15.9035Z" fill="#4267B2"/>
</g>
<defs>
<clipPath id="clip0">
<rect width="213" height="29" fill="white"/>
</clipPath>
</defs>
</svg>
